# This file uses centimeters as units for non-parametric coordinates.

mtllib Street.mtl
g default
v -12.098390 -0.000000 12.098390
v -9.678712 -0.000000 12.098390
v -7.259034 -0.000000 12.098390
v -4.839356 -0.000000 12.098390
v -2.419678 -0.000000 12.098390
v 0.000000 -0.000000 12.098390
v 2.419678 -0.000000 12.098390
v 4.839356 -0.000000 12.098390
v 7.259034 -0.000000 12.098390
v 9.678713 -0.000000 12.098390
v 12.098390 -0.000000 12.098390
v -12.098390 -0.000000 9.678712
v 12.098390 -0.000000 9.678712
v -12.098390 -0.000000 7.259034
v 12.098390 -0.000000 7.259034
v -12.098390 -0.000000 4.839356
v 12.098390 -0.000000 4.839356
v -12.098390 -0.000000 2.419678
v 12.098390 -0.000000 2.419678
v -12.098390 0.000000 0.000000
v 12.098390 0.000000 0.000000
v -12.098390 0.000000 -2.419678
v 12.098390 0.000000 -2.419678
v -12.098390 0.000000 -4.839356
v 12.098390 0.000000 -4.839356
v -12.098390 0.000000 -7.259034
v 12.098390 0.000000 -7.259034
v -12.098390 0.000000 -9.678713
v 12.098390 0.000000 -9.678713
v -12.098390 0.000000 -12.098390
v -9.678712 0.000000 -12.098390
v -7.259034 0.000000 -12.098390
v -4.839356 0.000000 -12.098390
v -2.419678 0.000000 -12.098390
v 0.000000 0.000000 -12.098390
v 2.419678 0.000000 -12.098390
v 4.839356 0.000000 -12.098390
v 7.259034 0.000000 -12.098390
v 9.678713 0.000000 -12.098390
v 12.098390 0.000000 -12.098390
v -16.803330 -0.000000 16.803330
v -9.678712 -0.000000 16.803330
v -16.803330 -0.000000 9.678712
v -7.259034 -0.000000 16.803330
v -4.839356 -0.000000 16.803330
v -2.419678 -0.000000 16.803330
v -0.000000 -0.000000 16.803330
v 2.419678 -0.000000 16.803330
v 4.839356 -0.000000 16.803330
v 7.259034 -0.000000 16.803330
v 9.678713 -0.000000 16.803330
v 16.803330 -0.000000 16.803330
v 16.803330 -0.000000 9.678712
v -16.803330 -0.000000 7.259034
v 16.803330 -0.000000 7.259034
v -16.803330 -0.000000 4.839356
v 16.803330 -0.000000 4.839356
v -16.803330 -0.000000 2.419678
v 16.803330 -0.000000 2.419678
v -16.803330 -0.000000 0.000000
v 16.803330 -0.000000 0.000000
v -16.803330 0.000000 -2.419678
v 16.803330 0.000000 -2.419678
v -16.803330 0.000000 -4.839356
v 16.803330 0.000000 -4.839356
v -16.803330 0.000000 -7.259034
v 16.803330 0.000000 -7.259034
v -16.803330 0.000000 -9.678713
v 16.803330 0.000000 -9.678713
v -16.803330 0.000000 -16.803328
v 16.803330 0.000000 -16.803328
v -9.678712 0.000000 -16.803330
v -7.259034 0.000000 -16.803330
v -4.839356 0.000000 -16.803330
v -2.419678 0.000000 -16.803330
v -0.000000 0.000000 -16.803330
v 2.419678 0.000000 -16.803330
v 4.839356 0.000000 -16.803330
v 7.259034 0.000000 -16.803330
v 9.678713 0.000000 -16.803330
v -14.450860 0.000000 -14.450860
v -14.450860 0.000000 -9.678713
v -14.450860 0.000000 -7.259034
v -14.450860 0.000000 -4.839356
v -14.450860 0.000000 -2.419678
v -14.450860 -0.000000 0.000000
v -14.450860 -0.000000 2.419678
v -14.450860 -0.000000 4.839356
v -14.450860 -0.000000 7.259034
v -14.450860 -0.000000 9.678712
v -14.450860 -0.000000 14.450860
v -9.678712 -0.000000 14.450860
v -7.259034 -0.000000 14.450860
v -4.839356 -0.000000 14.450860
v -2.419678 -0.000000 14.450860
v -0.000000 -0.000000 14.450860
v 2.419678 -0.000000 14.450860
v 4.839356 -0.000000 14.450860
v 7.259034 -0.000000 14.450860
v 9.678713 -0.000000 14.450860
v 14.450860 -0.000000 14.450860
v 14.450860 -0.000000 9.678712
v 14.450860 -0.000000 7.259034
v 14.450860 -0.000000 4.839356
v 14.450860 -0.000000 2.419678
v 14.450860 -0.000000 0.000000
v 14.450860 0.000000 -2.419678
v 14.450860 0.000000 -4.839356
v 14.450860 0.000000 -7.259034
v 14.450860 0.000000 -9.678713
v 14.450860 0.000000 -14.450860
v 9.678713 0.000000 -14.450860
v 7.259034 0.000000 -14.450860
v 4.839356 0.000000 -14.450860
v 2.419678 0.000000 -14.450860
v -0.000000 0.000000 -14.450860
v -2.419678 0.000000 -14.450860
v -4.839356 0.000000 -14.450860
v -7.259034 0.000000 -14.450860
v -9.678712 0.000000 -14.450860
v -2.419678 -0.000000 49.837927
v -0.000000 -0.000000 49.837922
v 2.419678 -0.000000 49.837927
v -49.837927 -0.000000 2.419678
v -49.837922 -0.000000 0.000000
v 49.837927 -0.000000 2.419678
v 49.837922 -0.000000 0.000000
v -49.837927 0.000000 -2.419678
v 49.837927 0.000000 -2.419678
vt 0.402898 0.566309
vt 0.378623 0.566309
vt 0.355021 0.531008
vt 0.402898 0.531008
vt 0.378623 0.602618
vt 0.355021 0.602618
vt 0.427174 0.566309
vt 0.427174 0.531008
vt 0.451449 0.566309
vt 0.451449 0.531008
vt 0.475725 0.566309
vt 0.475725 0.531008
vt 0.500000 0.566309
vt 0.500000 0.531008
vt 0.524275 0.566309
vt 0.524275 0.531008
vt 0.548551 0.566309
vt 0.548551 0.531008
vt 0.572826 0.566309
vt 0.572826 0.531008
vt 0.597102 0.566309
vt 0.597102 0.531008
vt 0.621377 0.566309
vt 0.644979 0.531008
vt 0.621377 0.602618
vt 0.644979 0.602618
vt 0.378623 0.638927
vt 0.355021 0.638927
vt 0.621377 0.638927
vt 0.644979 0.638927
vt 0.378623 0.675236
vt 0.355021 0.675236
vt 0.621377 0.675236
vt 0.644979 0.675236
vt 0.378623 0.711545
vt 0.355021 0.711545
vt 0.621377 0.711545
vt 0.644979 0.711545
vt 0.378623 0.747854
vt 0.355021 0.747854
vt 0.621377 0.747854
vt 0.644979 0.747854
vt 0.378623 0.784163
vt 0.355021 0.784163
vt 0.621377 0.784163
vt 0.644979 0.784163
vt 0.378623 0.820472
vt 0.355021 0.820472
vt 0.621377 0.820472
vt 0.644979 0.820472
vt 0.378623 0.856781
vt 0.355021 0.856781
vt 0.621377 0.856781
vt 0.644979 0.856781
vt 0.378623 0.893090
vt 0.355021 0.893090
vt 0.621377 0.893090
vt 0.644979 0.893090
vt 0.378623 0.929399
vt 0.355021 0.964699
vt 0.621377 0.929399
vt 0.644979 0.964699
vt 0.402898 0.929399
vt 0.402898 0.964699
vt 0.427174 0.929399
vt 0.427174 0.964699
vt 0.451449 0.929399
vt 0.451449 0.964699
vt 0.475725 0.929399
vt 0.475725 0.964699
vt 0.500000 0.929399
vt 0.500000 0.964699
vt 0.524275 0.929399
vt 0.524275 0.964699
vt 0.548551 0.929399
vt 0.548551 0.964699
vt 0.572826 0.929399
vt 0.572826 0.964699
vt 0.597102 0.929399
vt 0.597102 0.964699
vt 0.331420 1.000000
vt 0.331420 0.893090
vt 0.331420 0.856781
vt 0.331420 0.820472
vt 0.331420 0.784163
vt 0.331420 0.747854
vt 0.331420 0.711545
vt 0.331420 0.675236
vt 0.331420 0.638927
vt 0.331420 0.602618
vt 0.331420 0.495708
vt 0.402898 0.495708
vt 0.427174 0.495708
vt 0.451449 0.495708
vt 0.475725 0.495708
vt 0.500000 0.495708
vt 0.524275 0.495708
vt 0.548551 0.495708
vt 0.572826 0.495708
vt 0.597102 0.495708
vt 0.668580 0.495708
vt 0.668580 0.602618
vt 0.668580 0.638927
vt 0.668580 0.675236
vt 0.668580 0.711545
vt 0.668580 0.747854
vt 0.668580 0.784163
vt 0.668580 0.820472
vt 0.668580 0.856781
vt 0.668580 0.893090
vt 0.668580 1.000000
vt 0.597102 1.000000
vt 0.572826 1.000000
vt 0.548551 1.000000
vt 0.524275 1.000000
vt 0.500000 1.000000
vt 0.475725 1.000000
vt 0.451449 1.000000
vt 0.427174 1.000000
vt 0.402898 1.000000
vt 0.475725 -0.000000
vt 0.500000 0.000000
vt 0.524275 -0.000000
vt 0.000000 0.747854
vt 0.000000 0.711545
vt 1.000000 0.711545
vt 1.000000 0.747854
vt 0.000000 0.784163
vt 1.000000 0.784163
vn 0.000000 1.000000 0.000000
vn 0.000000 1.000000 0.000000
vn 0.000000 1.000000 0.000000
vn 0.000000 1.000000 0.000000
vn 0.000000 1.000000 0.000000
vn 0.000000 1.000000 0.000000
vn 0.000000 1.000000 0.000000
vn 0.000000 1.000000 0.000000
vn 0.000000 1.000000 0.000000
vn 0.000000 1.000000 0.000000
vn 0.000000 1.000000 0.000000
vn -0.000000 1.000000 0.000000
vn 0.000000 1.000000 0.000000
vn 0.000000 1.000000 0.000000
vn 0.000000 1.000000 0.000000
vn 0.000000 1.000000 0.000000
vn 0.000000 1.000000 0.000000
vn 0.000000 1.000000 0.000000
vn 0.000000 1.000000 0.000000
vn 0.000000 1.000000 0.000000
vn -0.000000 1.000000 0.000000
vn -0.000000 1.000000 0.000000
vn -0.000000 1.000000 0.000000
vn -0.000000 1.000000 0.000000
vn -0.000000 1.000000 0.000000
vn -0.000000 1.000000 0.000000
vn 0.000000 1.000000 0.000000
vn 0.000000 1.000000 0.000000
vn 0.000000 1.000000 0.000000
vn 0.000000 1.000000 0.000000
vn 0.000000 1.000000 0.000000
vn 0.000000 1.000000 0.000000
vn 0.000000 1.000000 0.000000
vn 0.000000 1.000000 0.000000
vn 0.000000 1.000000 0.000000
vn 0.000000 1.000000 0.000000
vn 0.000000 1.000000 0.000000
vn 0.000000 1.000000 0.000000
vn 0.000000 1.000000 0.000000
vn 0.000000 1.000000 0.000000
vn 0.000000 1.000000 0.000000
vn 0.000000 1.000000 0.000000
vn 0.000000 1.000000 0.000000
vn 0.000000 1.000000 0.000000
vn 0.000000 1.000000 0.000000
vn 0.000000 1.000000 0.000000
vn 0.000000 1.000000 0.000000
vn 0.000000 1.000000 0.000000
vn 0.000000 1.000000 0.000000
vn 0.000000 1.000000 0.000000
vn 0.000000 1.000000 0.000000
vn 0.000000 1.000000 0.000000
vn 0.000000 1.000000 0.000000
vn 0.000000 1.000000 0.000000
vn -0.000000 1.000000 0.000000
vn -0.000000 1.000000 0.000000
vn 0.000000 1.000000 0.000000
vn 0.000000 1.000000 0.000000
vn -0.000000 1.000000 0.000000
vn -0.000000 1.000000 0.000000
vn 0.000000 1.000000 0.000000
vn 0.000000 1.000000 0.000000
vn -0.000000 1.000000 0.000000
vn -0.000000 1.000000 0.000000
vn 0.000000 1.000000 0.000000
vn 0.000000 1.000000 0.000000
vn 0.000000 1.000000 0.000000
vn 0.000000 1.000000 0.000000
vn 0.000000 1.000000 0.000000
vn 0.000000 1.000000 0.000000
vn 0.000000 1.000000 0.000000
vn 0.000000 1.000000 0.000000
vn 0.000000 1.000000 0.000000
vn 0.000000 1.000000 0.000000
vn 0.000000 1.000000 0.000000
vn 0.000000 1.000000 0.000000
vn 0.000000 1.000000 0.000000
vn 0.000000 1.000000 0.000000
vn 0.000000 1.000000 0.000000
vn 0.000000 1.000000 0.000000
vn -0.000000 1.000000 0.000000
vn -0.000000 1.000000 0.000000
vn 0.000000 1.000000 0.000000
vn 0.000000 1.000000 0.000000
vn 0.000000 1.000000 0.000000
vn 0.000000 1.000000 0.000000
vn 0.000000 1.000000 0.000000
vn 0.000000 1.000000 0.000000
vn 0.000000 1.000000 0.000000
vn 0.000000 1.000000 0.000000
vn 0.000000 1.000000 0.000000
vn 0.000000 1.000000 0.000000
vn 0.000000 1.000000 0.000000
vn 0.000000 1.000000 0.000000
vn 0.000000 1.000000 0.000000
vn -0.000000 1.000000 0.000000
vn -0.000000 1.000000 0.000000
vn 0.000000 1.000000 0.000000
vn 0.000000 1.000000 0.000000
vn -0.000000 1.000000 0.000000
vn -0.000000 1.000000 0.000000
vn -0.000000 1.000000 0.000000
vn 0.000000 1.000000 0.000000
vn 0.000000 1.000000 0.000000
vn 0.000000 1.000000 0.000000
vn 0.000000 1.000000 0.000000
vn 0.000000 1.000000 0.000000
vn 0.000000 1.000000 0.000000
vn 0.000000 1.000000 0.000000
vn 0.000000 1.000000 0.000000
vn 0.000000 1.000000 0.000000
vn 0.000000 1.000000 0.000000
vn 0.000000 1.000000 0.000000
vn 0.000000 1.000000 0.000000
vn 0.000000 1.000000 0.000000
vn 0.000000 1.000000 0.000000
vn 0.000000 1.000000 0.000000
vn 0.000000 1.000000 0.000000
vn 0.000000 1.000000 0.000000
vn -0.000000 1.000000 0.000000
vn 0.000000 1.000000 0.000000
vn -0.000000 1.000000 0.000000
vn -0.000000 1.000000 0.000000
vn 0.000000 1.000000 0.000000
vn 0.000000 1.000000 0.000000
vn 0.000000 1.000000 0.000000
vn 0.000000 1.000000 0.000000
vn 0.000000 1.000000 0.000000
vn 0.000000 1.000000 0.000000
s 1
g Street
usemtl lambert3SG
f 2/1/1 1/2/2 91/3/3 92/4/4
f 1/2/2 12/5/5 90/6/6 91/3/3
f 3/7/7 2/1/1 92/4/4 93/8/8
f 4/9/9 3/7/7 93/8/8 94/10/10
f 5/11/11 4/9/9 94/10/10 95/12/12
f 6/13/13 5/11/11 95/12/12 96/14/14
f 7/15/15 6/13/13 96/14/14 97/16/16
f 8/17/17 7/15/15 97/16/16 98/18/18
f 9/19/19 8/17/17 98/18/18 99/20/20
f 10/21/21 9/19/19 99/20/20 100/22/22
f 11/23/23 10/21/21 100/22/22 101/24/24
f 13/25/25 11/23/23 101/24/24 102/26/26
f 12/5/5 14/27/27 89/28/28 90/6/6
f 15/29/29 13/25/25 102/26/26 103/30/30
f 14/27/27 16/31/31 88/32/32 89/28/28
f 17/33/33 15/29/29 103/30/30 104/34/34
f 16/31/31 18/35/35 87/36/36 88/32/32
f 19/37/37 17/33/33 104/34/34 105/38/38
f 18/35/35 20/39/39 86/40/40 87/36/36
f 21/41/41 19/37/37 105/38/38 106/42/42
f 20/39/39 22/43/43 85/44/44 86/40/40
f 23/45/45 21/41/41 106/42/42 107/46/46
f 22/43/43 24/47/47 84/48/48 85/44/44
f 25/49/49 23/45/45 107/46/46 108/50/50
f 24/47/47 26/51/51 83/52/52 84/48/48
f 27/53/53 25/49/49 108/50/50 109/54/54
f 26/51/51 28/55/55 82/56/56 83/52/52
f 29/57/57 27/53/53 109/54/54 110/58/58
f 28/55/55 30/59/59 81/60/60 82/56/56
f 40/61/61 29/57/57 110/58/58 111/62/62
f 30/59/59 31/63/63 120/64/64 81/60/60
f 31/63/63 32/65/65 119/66/66 120/64/64
f 32/65/65 33/67/67 118/68/68 119/66/66
f 33/67/67 34/69/69 117/70/70 118/68/68
f 34/69/69 35/71/71 116/72/72 117/70/70
f 35/71/71 36/73/73 115/74/74 116/72/72
f 36/73/73 37/75/75 114/76/76 115/74/74
f 37/75/75 38/77/77 113/78/78 114/76/76
f 38/77/77 39/79/79 112/80/80 113/78/78
f 39/79/79 40/61/61 111/62/62 112/80/80
f 82/56/56 81/60/60 70/81/81 68/82/82
f 83/52/52 82/56/56 68/82/82 66/83/83
f 84/48/48 83/52/52 66/83/83 64/84/84
f 85/44/44 84/48/48 64/84/84 62/85/85
f 86/40/40 85/44/44 62/85/85 60/86/86
f 87/36/36 86/40/40 60/86/86 58/87/87
f 88/32/32 87/36/36 58/87/87 56/88/88
f 89/28/28 88/32/32 56/88/88 54/89/89
f 90/6/6 89/28/28 54/89/89 43/90/90
f 91/3/3 90/6/6 43/90/90 41/91/91
f 92/4/4 91/3/3 41/91/91 42/92/92
f 93/8/8 92/4/4 42/92/92 44/93/93
f 94/10/10 93/8/8 44/93/93 45/94/94
f 95/12/12 94/10/10 45/94/94 46/95/95
f 96/14/14 95/12/12 46/95/95 47/96/96
f 97/16/16 96/14/14 47/96/96 48/97/97
f 98/18/18 97/16/16 48/97/97 49/98/98
f 99/20/20 98/18/18 49/98/98 50/99/99
f 100/22/22 99/20/20 50/99/99 51/100/100
f 101/24/24 100/22/22 51/100/100 52/101/101
f 102/26/26 101/24/24 52/101/101 53/102/102
f 103/30/30 102/26/26 53/102/102 55/103/103
f 104/34/34 103/30/30 55/103/103 57/104/104
f 105/38/38 104/34/34 57/104/104 59/105/105
f 106/42/42 105/38/38 59/105/105 61/106/106
f 107/46/46 106/42/42 61/106/106 63/107/107
f 108/50/50 107/46/46 63/107/107 65/108/108
f 109/54/54 108/50/50 65/108/108 67/109/109
f 110/58/58 109/54/54 67/109/109 69/110/110
f 111/62/62 110/58/58 69/110/110 71/111/111
f 112/80/80 111/62/62 71/111/111 80/112/112
f 113/78/78 112/80/80 80/112/112 79/113/113
f 114/76/76 113/78/78 79/113/113 78/114/114
f 115/74/74 114/76/76 78/114/114 77/115/115
f 116/72/72 115/74/74 77/115/115 76/116/116
f 117/70/70 116/72/72 76/116/116 75/117/117
f 118/68/68 117/70/70 75/117/117 74/118/118
f 119/66/66 118/68/68 74/118/118 73/119/119
f 120/64/64 119/66/66 73/119/119 72/120/120
f 81/60/60 120/64/64 72/120/120 70/81/81
f 47/96/96 46/95/95 121/121/121 122/122/122
f 48/97/97 47/96/96 122/122/122 123/123/123
f 58/87/87 60/86/86 125/124/124 124/125/125
f 61/106/106 59/105/105 126/126/126 127/127/127
f 60/86/86 62/85/85 128/128/128 125/124/124
f 63/107/107 61/106/106 127/127/127 129/129/129
